(DEVICE FILE: DRC_S-PVSON-N10_D5_31S_5V)

PACKAGE 'DRC_S-PVSON-N10_D5_31S_5V'
CLASS DISCRETE
PINCOUNT 16

PINORDER XXX 1 10 11 12 13 14 15 16 2 3 4 5 6 7 8 9
FUNCTION G1 XXX 1 10 11 12 13 14 15 16 2 3 4 5 6 7 8 9

PACKAGEPROP VALUE TPS2560DRC

END
