(DEVICE FILE: LGA16_3X3X1)

PACKAGE LGA16_3X3X1
CLASS IC
PINCOUNT 16

PINORDER LGA16_3X3X1 'TP-1' 'TP-2' 'TP-3' 'TP-4' 'TP-5' 'TP-6' 'TP-7' 'TP-8' 'TP-9' 'TP-10' 'TP-11',
      'TP-12' 'TP-13' 'TP-14' 'TP-15' 'TP-16'
FUNCTION 'TS-1' LGA16_3X3X1 1 2 3 4 5 6 7 8 9 10 11 12 13 14 15 16

PACKAGEPROP VALUE LIS331DLH

END
