(DEVICE FILE: SATA7_ABA-SAT-010-K)

PACKAGE 'SATA7_ABA-SAT-010-K'
CLASS DISCRETE
PINCOUNT 9

PINORDER 'SATA7_ABA-SAT-010-K' 'TP-1' 'TP-2' 'TP-3' 'TP-4' 'TP-5' 'TP-6' 'TP-7' 'TP-8' 'TP-9'
FUNCTION 'TS-1' 'SATA7_ABA-SAT-010-K' 1 2 3 4 5 6 7 8 9

PACKAGEPROP VALUE 'SATA-7-LATCH'

END
