(DEVICE FILE: SM0603C__2 - used for device: 'SM0603C')

PACKAGE SM0603C
CLASS DISCRETE
PINCOUNT 2

PINORDER SM0603C 'TP-1' 'TP-2'
FUNCTION 'TS-1' SM0603C 1 2

PACKAGEPROP VALUE '10U/6.3V/X5R-C3'

END
