(DEVICE FILE: SOT23_5__4 - used for device: 'SOT23_5')

PACKAGE SOT23_5
CLASS IC
PINCOUNT 5

PINORDER SOT23_5 'TP-1' 'TP-2' 'TP-3' 'TP-4' 'TP-5'
FUNCTION 'TS-1' SOT23_5 1 2 3 4 5

PACKAGEPROP VALUE TPS2061DBVR

END
