(DEVICE FILE: TN-MXM30_281E40_AS0B82X-S78X-XH)

PACKAGE 'TN-MXM30_281E40_AS0B82X-S78X-XH'
CLASS DISCRETE
PINCOUNT 316

PINORDER XXX 1 10 100 101 102 103 104 105 106 107 108 109 11 110 111 112 113 114 115 116 117 118 119,
      12 120 121 122 123 124 125 13 133 134 135 136 137 138 139 14 140 141 142 143 144 145 146 147,
      148 149 15 150 151 152 153 154 155 156 157 158 159 16 160 161 162 163 164 165 166 167 168 169,
      17 170 171 172 173 174 175 176 177 178 179 18 180 181 182 183 184 185 186 187 188 189 19 190,
      191 192 193 194 195 196 197 198 199 2 20 200 201 202 203 204 205 206 207 208 209 21 210 211,
      212 213 214 215 216 217 218 219 22 220 221 222 223 224 225 226 227 228 229 23 230 231 232 233,
      234 235 236 237 238 239 24 240 241 242 243 244 245 246 247 248 249 25 250 251 252 253 254 255,
      256 257 258 259 26 260 261 262 263 264 265 266 267 268 269 27 270 271 272 273 274 275 276 277,
      278 279 28 280 281 29 3 30 31 32 33 34 35 36 37 38 39 4 40 41 42 43 44 45 46 47 48 49 5 50 51,
      52 53 54 55 56 57 58 59 6 60 61 62 63 64 65 66 67 68 69 7 70 71 72 73 74 75 76 77 78 79 8 80,
      81 82 83 84 85 86 87 88 89 9 90 91 92 93 94 95 96 97 98 99 E1_1 E1_10 E1_2 E1_3 E1_4 E1_5 E1_6,
      E1_7 E1_8 E1_9 E2_1 E2_10 E2_2 E2_3 E2_4 E2_5 E2_6 E2_7 E2_8 E2_9 E3_1 E3_10 E3_2 E3_3 E3_4,
      E3_5 E3_6 E3_7 E3_8 E3_9 E4_1 E4_10 E4_2 E4_3 E4_4 E4_5 E4_6 E4_7 E4_8 E4_9 P1 P2
FUNCTION G1 XXX 1 10 100 101 102 103 104 105 106 107 108 109 11 110 111 112 113 114 115 116 117 118,
      119 12 120 121 122 123 124 125 13 133 134 135 136 137 138 139 14 140 141 142 143 144 145 146,
      147 148 149 15 150 151 152 153 154 155 156 157 158 159 16 160 161 162 163 164 165 166 167 168,
      169 17 170 171 172 173 174 175 176 177 178 179 18 180 181 182 183 184 185 186 187 188 189 19,
      190 191 192 193 194 195 196 197 198 199 2 20 200 201 202 203 204 205 206 207 208 209 21 210,
      211 212 213 214 215 216 217 218 219 22 220 221 222 223 224 225 226 227 228 229 23 230 231 232,
      233 234 235 236 237 238 239 24 240 241 242 243 244 245 246 247 248 249 25 250 251 252 253 254,
      255 256 257 258 259 26 260 261 262 263 264 265 266 267 268 269 27 270 271 272 273 274 275 276,
      277 278 279 28 280 281 29 3 30 31 32 33 34 35 36 37 38 39 4 40 41 42 43 44 45 46 47 48 49 5 50,
      51 52 53 54 55 56 57 58 59 6 60 61 62 63 64 65 66 67 68 69 7 70 71 72 73 74 75 76 77 78 79 8,
      80 81 82 83 84 85 86 87 88 89 9 90 91 92 93 94 95 96 97 98 99 E1_1 E1_10 E1_2 E1_3 E1_4 E1_5,
      E1_6 E1_7 E1_8 E1_9 E2_1 E2_10 E2_2 E2_3 E2_4 E2_5 E2_6 E2_7 E2_8 E2_9 E3_1 E3_10 E3_2 E3_3,
      E3_4 E3_5 E3_6 E3_7 E3_8 E3_9 E4_1 E4_10 E4_2 E4_3 E4_4 E4_5 E4_6 E4_7 E4_8 E4_9 P1 P2

PACKAGEPROP VALUE 'MXM3.0-314-H7.8'

END
