(DEVICE FILE: TSSOP38_D5)

PACKAGE TSSOP38_D5
CLASS DISCRETE
PINCOUNT 38

PINORDER XXX 1 10 11 12 13 14 15 16 17 18 19 2 20 21 22 23 24 25 26 27 28 29 3 30 31 32 33 34 35 36,
      37 38 4 5 6 7 8 9
FUNCTION G1 XXX 1 10 11 12 13 14 15 16 17 18 19 2 20 21 22 23 24 25 26 27 28 29 3 30 31 32 33 34 35,
      36 37 38 4 5 6 7 8 9

PACKAGEPROP VALUE CM2020

END
