    0.3000  P  T01    0.000000    0.000000
    0.3302  P  T02    0.000000    0.000000
    0.7112  P  T03    0.000000    0.000000
    0.7366  P  T04    0.000000    0.000000
    0.7900  P  T05    0.020000    0.020000
    0.9144  P  T06    0.000000    0.000000
    1.0160  P  T07    0.000000    0.000000
    1.3970  P  T08    0.000000    0.000000
    2.1082  P  T09    0.000000    0.000000
    1.0922  N  T10    0.000000    0.000000
    1.6002  N  T11    0.000000    0.000000
    2.3500  N  T12    0.050000    0.050000
    3.0988  N  T13    0.000000    0.000000
